<?xml version="1.0" encoding="UTF-8" standalone="no"?><svg xmlns="http://www.w3.org/2000/svg" xmlns:xlink="http://www.w3.org/1999/xlink" contentScriptType="application/ecmascript" contentStyleType="text/css" height="2337px" preserveAspectRatio="none" style="width:1706px;height:2337px;background:#FFFFFF;" version="1.1" viewBox="0 0 1706 2337" width="1706px" zoomAndPan="magnify"><defs/><g><rect fill="#FFFFFF" height="200.4609" style="stroke:#000000;stroke-width:2.0;" width="975.5" x="714" y="1383.2656"/><line style="stroke:#A80036;stroke-width:1.0;stroke-dasharray:5.0,5.0;" x1="22" x2="22" y1="37.6094" y2="2330.1094"/><line style="stroke:#A80036;stroke-width:1.0;stroke-dasharray:5.0,5.0;" x1="237" x2="237" y1="37.6094" y2="2330.1094"/><line style="stroke:#A80036;stroke-width:1.0;stroke-dasharray:5.0,5.0;" x1="513.5" x2="513.5" y1="37.6094" y2="2330.1094"/><line style="stroke:#A80036;stroke-width:1.0;stroke-dasharray:5.0,5.0;" x1="773" x2="773" y1="37.6094" y2="2330.1094"/><line style="stroke:#A80036;stroke-width:1.0;stroke-dasharray:5.0,5.0;" x1="960.5" x2="960.5" y1="37.6094" y2="2330.1094"/><line style="stroke:#A80036;stroke-width:1.0;stroke-dasharray:5.0,5.0;" x1="1274" x2="1274" y1="37.6094" y2="2330.1094"/><line style="stroke:#A80036;stroke-width:1.0;stroke-dasharray:5.0,5.0;" x1="1389" x2="1389" y1="37.6094" y2="2330.1094"/><line style="stroke:#A80036;stroke-width:1.0;stroke-dasharray:5.0,5.0;" x1="1469" x2="1469" y1="37.6094" y2="2330.1094"/><line style="stroke:#A80036;stroke-width:1.0;stroke-dasharray:5.0,5.0;" x1="1650.5" x2="1650.5" y1="37.6094" y2="2330.1094"/><rect fill="#FEFECE" height="31.6094" style="stroke:#A80036;stroke-width:1.5;" width="35" x="5" y="5"/><text fill="#000000" font-family="sans-serif" font-size="14" lengthAdjust="spacing" textLength="21" x="12" y="26.5332">CLI</text><rect fill="#FEFECE" height="31.6094" style="stroke:#A80036;stroke-width:1.5;" width="69" x="203" y="5"/><text fill="#000000" font-family="sans-serif" font-size="14" lengthAdjust="spacing" textLength="55" x="210" y="26.5332">Executor</text><rect fill="#FEFECE" height="31.6094" style="stroke:#A80036;stroke-width:1.5;" width="100" x="463.5" y="5"/><text fill="#000000" font-family="sans-serif" font-size="14" lengthAdjust="spacing" textLength="86" x="470.5" y="26.5332">RunGovernor</text><rect fill="#FEFECE" height="31.6094" style="stroke:#A80036;stroke-width:1.5;" width="99" x="724" y="5"/><text fill="#000000" font-family="sans-serif" font-size="14" lengthAdjust="spacing" textLength="85" x="731" y="26.5332">SimController</text><rect fill="#FEFECE" height="31.6094" style="stroke:#A80036;stroke-width:1.5;" width="104" x="908.5" y="5"/><text fill="#000000" font-family="sans-serif" font-size="14" lengthAdjust="spacing" textLength="90" x="915.5" y="26.5332">EnvConductor</text><rect fill="#FEFECE" height="31.6094" style="stroke:#A80036;stroke-width:1.5;" width="117" x="1216" y="5"/><text fill="#000000" font-family="sans-serif" font-size="14" lengthAdjust="spacing" textLength="103" x="1223" y="26.5332">AgentConductor</text><rect fill="#FEFECE" height="31.6094" style="stroke:#A80036;stroke-width:1.5;" width="93" x="1343" y="5"/><text fill="#000000" font-family="sans-serif" font-size="14" lengthAdjust="spacing" textLength="79" x="1350" y="26.5332">Environment</text><rect fill="#FEFECE" height="31.6094" style="stroke:#A80036;stroke-width:1.5;" width="47" x="1446" y="5"/><text fill="#000000" font-family="sans-serif" font-size="14" lengthAdjust="spacing" textLength="33" x="1453" y="26.5332">Brain</text><rect fill="#FEFECE" height="31.6094" style="stroke:#A80036;stroke-width:1.5;" width="58" x="1621.5" y="5"/><text fill="#000000" font-family="sans-serif" font-size="14" lengthAdjust="spacing" textLength="44" x="1628.5" y="26.5332">Muscle</text><rect fill="#EEEEEE" height="3" style="stroke:#EEEEEE;stroke-width:1.0;" width="1699.5" x="0" y="68.7852"/><line style="stroke:#000000;stroke-width:1.0;" x1="0" x2="1699.5" y1="68.7852" y2="68.7852"/><line style="stroke:#000000;stroke-width:1.0;" x1="0" x2="1699.5" y1="71.7852" y2="71.7852"/><rect fill="#EEEEEE" height="24.3516" style="stroke:#000000;stroke-width:2.0;" width="97" x="801.25" y="57.6094"/><text fill="#000000" font-family="sans-serif" font-size="13" font-weight="bold" lengthAdjust="spacing" textLength="79" x="807.25" y="75.1045">Initialization</text><polygon fill="#A80036" points="225.5,110.3125,235.5,114.3125,225.5,118.3125" style="stroke:#A80036;stroke-width:1.0;"/><line style="stroke:#A80036;stroke-width:1.0;" x1="22.5" x2="231.5" y1="114.3125" y2="114.3125"/><text fill="#000000" font-family="sans-serif" font-size="13" lengthAdjust="spacing" textLength="191" x="34.5" y="109.4561">palaestrai experiment-start [path]</text><line style="stroke:#A80036;stroke-width:1.0;" x1="237.5" x2="279.5" y1="144.6641" y2="144.6641"/><line style="stroke:#A80036;stroke-width:1.0;" x1="279.5" x2="279.5" y1="144.6641" y2="157.6641"/><line style="stroke:#A80036;stroke-width:1.0;" x1="238.5" x2="279.5" y1="157.6641" y2="157.6641"/><polygon fill="#A80036" points="248.5,153.6641,238.5,157.6641,248.5,161.6641" style="stroke:#A80036;stroke-width:1.0;"/><text fill="#000000" font-family="sans-serif" font-size="13" lengthAdjust="spacing" textLength="46" x="244.5" y="139.8076">execute</text><line style="stroke:#A80036;stroke-width:1.0;" x1="237.5" x2="279.5" y1="188.0156" y2="188.0156"/><line style="stroke:#A80036;stroke-width:1.0;" x1="279.5" x2="279.5" y1="188.0156" y2="201.0156"/><line style="stroke:#A80036;stroke-width:1.0;" x1="238.5" x2="279.5" y1="201.0156" y2="201.0156"/><polygon fill="#A80036" points="248.5,197.0156,238.5,201.0156,248.5,205.0156" style="stroke:#A80036;stroke-width:1.0;"/><text fill="#000000" font-family="sans-serif" font-size="13" lengthAdjust="spacing" textLength="197" x="244.5" y="183.1592">_start_all_scheduled_experiments</text><line style="stroke:#A80036;stroke-width:1.0;" x1="237.5" x2="279.5" y1="231.3672" y2="231.3672"/><line style="stroke:#A80036;stroke-width:1.0;" x1="279.5" x2="279.5" y1="231.3672" y2="244.3672"/><line style="stroke:#A80036;stroke-width:1.0;" x1="238.5" x2="279.5" y1="244.3672" y2="244.3672"/><polygon fill="#A80036" points="248.5,240.3672,238.5,244.3672,248.5,248.3672" style="stroke:#A80036;stroke-width:1.0;"/><text fill="#000000" font-family="sans-serif" font-size="13" lengthAdjust="spacing" textLength="141" x="244.5" y="226.5107">_deploy_experiment_run</text><line style="stroke:#A80036;stroke-width:1.0;" x1="237.5" x2="279.5" y1="274.7188" y2="274.7188"/><line style="stroke:#A80036;stroke-width:1.0;" x1="279.5" x2="279.5" y1="274.7188" y2="287.7188"/><line style="stroke:#A80036;stroke-width:1.0;" x1="238.5" x2="279.5" y1="287.7188" y2="287.7188"/><polygon fill="#A80036" points="248.5,283.7188,238.5,287.7188,248.5,291.7188" style="stroke:#A80036;stroke-width:1.0;"/><text fill="#000000" font-family="sans-serif" font-size="13" lengthAdjust="spacing" textLength="125" x="244.5" y="269.8623">_launch_run_governor</text><polygon fill="#A80036" points="501.5,314.0703,511.5,318.0703,501.5,322.0703" style="stroke:#A80036;stroke-width:1.0;"/><line style="stroke:#A80036;stroke-width:1.0;" x1="237.5" x2="507.5" y1="318.0703" y2="318.0703"/><text fill="#000000" font-family="sans-serif" font-size="13" lengthAdjust="spacing" textLength="225" x="263" y="313.2139">launches RunGovernor in Pristine state</text><line style="stroke:#A80036;stroke-width:1.0;" x1="513.5" x2="555.5" y1="348.4219" y2="348.4219"/><line style="stroke:#A80036;stroke-width:1.0;" x1="555.5" x2="555.5" y1="348.4219" y2="361.4219"/><line style="stroke:#A80036;stroke-width:1.0;" x1="514.5" x2="555.5" y1="361.4219" y2="361.4219"/><polygon fill="#A80036" points="524.5,357.4219,514.5,361.4219,524.5,365.4219" style="stroke:#A80036;stroke-width:1.0;"/><text fill="#000000" font-family="sans-serif" font-size="13" lengthAdjust="spacing" textLength="158" x="520.5" y="343.5654">state changes to Initializing</text><line style="stroke:#A80036;stroke-width:1.0;" x1="513.5" x2="555.5" y1="391.7734" y2="391.7734"/><line style="stroke:#A80036;stroke-width:1.0;" x1="555.5" x2="555.5" y1="391.7734" y2="404.7734"/><line style="stroke:#A80036;stroke-width:1.0;" x1="514.5" x2="555.5" y1="404.7734" y2="404.7734"/><polygon fill="#A80036" points="524.5,400.7734,514.5,404.7734,524.5,408.7734" style="stroke:#A80036;stroke-width:1.0;"/><text fill="#000000" font-family="sans-serif" font-size="13" lengthAdjust="spacing" textLength="172" x="520.5" y="386.917">state changes to Transceiving</text><line style="stroke:#A80036;stroke-width:1.0;" x1="237.5" x2="279.5" y1="435.125" y2="435.125"/><line style="stroke:#A80036;stroke-width:1.0;" x1="279.5" x2="279.5" y1="435.125" y2="448.125"/><line style="stroke:#A80036;stroke-width:1.0;" x1="238.5" x2="279.5" y1="448.125" y2="448.125"/><polygon fill="#A80036" points="248.5,444.125,238.5,448.125,248.5,452.125" style="stroke:#A80036;stroke-width:1.0;"/><text fill="#000000" font-family="sans-serif" font-size="13" lengthAdjust="spacing" textLength="129" x="244.5" y="430.2686">_start_experiment_run</text><polygon fill="#A80036" points="501.5,474.4766,511.5,478.4766,501.5,482.4766" style="stroke:#A80036;stroke-width:1.0;"/><line style="stroke:#A80036;stroke-width:1.0;" x1="237.5" x2="507.5" y1="478.4766" y2="478.4766"/><text fill="#000000" font-family="sans-serif" font-size="13" lengthAdjust="spacing" textLength="252" x="249.5" y="473.6201">_client.send(rg_id,ExperimentStartRequest)</text><line style="stroke:#A80036;stroke-width:1.0;" x1="513.5" x2="555.5" y1="508.8281" y2="508.8281"/><line style="stroke:#A80036;stroke-width:1.0;" x1="555.5" x2="555.5" y1="508.8281" y2="521.8281"/><line style="stroke:#A80036;stroke-width:1.0;" x1="514.5" x2="555.5" y1="521.8281" y2="521.8281"/><polygon fill="#A80036" points="524.5,517.8281,514.5,521.8281,524.5,525.8281" style="stroke:#A80036;stroke-width:1.0;"/><text fill="#000000" font-family="sans-serif" font-size="13" lengthAdjust="spacing" textLength="180" x="520.5" y="503.9717">state changes to StartingSetup</text><polygon fill="#A80036" points="248.5,548.1797,238.5,552.1797,248.5,556.1797" style="stroke:#A80036;stroke-width:1.0;"/><line style="stroke:#A80036;stroke-width:1.0;stroke-dasharray:2.0,2.0;" x1="242.5" x2="512.5" y1="552.1797" y2="552.1797"/><text fill="#000000" font-family="sans-serif" font-size="13" lengthAdjust="spacing" textLength="152" x="299.5" y="547.3232">ExperimentStartResponse</text><line style="stroke:#A80036;stroke-width:1.0;" x1="513.5" x2="555.5" y1="582.5313" y2="582.5313"/><line style="stroke:#A80036;stroke-width:1.0;" x1="555.5" x2="555.5" y1="582.5313" y2="595.5313"/><line style="stroke:#A80036;stroke-width:1.0;" x1="514.5" x2="555.5" y1="595.5313" y2="595.5313"/><polygon fill="#A80036" points="524.5,591.5313,514.5,595.5313,524.5,599.5313" style="stroke:#A80036;stroke-width:1.0;"/><text fill="#000000" font-family="sans-serif" font-size="13" lengthAdjust="spacing" textLength="231" x="520.5" y="577.6748">state changes to StartingSimControllers</text><polygon fill="#A80036" points="761.5,621.8828,771.5,625.8828,761.5,629.8828" style="stroke:#A80036;stroke-width:1.0;"/><line style="stroke:#A80036;stroke-width:1.0;" x1="513.5" x2="767.5" y1="625.8828" y2="625.8828"/><text fill="#000000" font-family="sans-serif" font-size="13" lengthAdjust="spacing" textLength="151" x="568" y="621.0264">_run_simulation_controller</text><line style="stroke:#A80036;stroke-width:1.0;" x1="773.5" x2="815.5" y1="656.2344" y2="656.2344"/><line style="stroke:#A80036;stroke-width:1.0;" x1="815.5" x2="815.5" y1="656.2344" y2="669.2344"/><line style="stroke:#A80036;stroke-width:1.0;" x1="774.5" x2="815.5" y1="669.2344" y2="669.2344"/><polygon fill="#A80036" points="784.5,665.2344,774.5,669.2344,784.5,673.2344" style="stroke:#A80036;stroke-width:1.0;"/><text fill="#000000" font-family="sans-serif" font-size="13" lengthAdjust="spacing" textLength="39" x="780.5" y="651.3779">_setup</text><line style="stroke:#A80036;stroke-width:1.0;" x1="513.5" x2="555.5" y1="699.5859" y2="699.5859"/><line style="stroke:#A80036;stroke-width:1.0;" x1="555.5" x2="555.5" y1="699.5859" y2="712.5859"/><line style="stroke:#A80036;stroke-width:1.0;" x1="514.5" x2="555.5" y1="712.5859" y2="712.5859"/><polygon fill="#A80036" points="524.5,708.5859,514.5,712.5859,524.5,716.5859" style="stroke:#A80036;stroke-width:1.0;"/><text fill="#000000" font-family="sans-serif" font-size="13" lengthAdjust="spacing" textLength="233" x="520.5" y="694.7295">state changes to StartingEnvConductors</text><polygon fill="#A80036" points="948.5,738.9375,958.5,742.9375,948.5,746.9375" style="stroke:#A80036;stroke-width:1.0;"/><line style="stroke:#A80036;stroke-width:1.0;" x1="513.5" x2="954.5" y1="742.9375" y2="742.9375"/><text fill="#000000" font-family="sans-serif" font-size="13" lengthAdjust="spacing" textLength="165" x="654.5" y="738.0811">_run_environment_conductor</text><line style="stroke:#A80036;stroke-width:1.0;" x1="960.5" x2="1002.5" y1="773.2891" y2="773.2891"/><line style="stroke:#A80036;stroke-width:1.0;" x1="1002.5" x2="1002.5" y1="773.2891" y2="786.2891"/><line style="stroke:#A80036;stroke-width:1.0;" x1="961.5" x2="1002.5" y1="786.2891" y2="786.2891"/><polygon fill="#A80036" points="971.5,782.2891,961.5,786.2891,971.5,790.2891" style="stroke:#A80036;stroke-width:1.0;"/><text fill="#000000" font-family="sans-serif" font-size="13" lengthAdjust="spacing" textLength="300" x="967.5" y="768.4326">_init_signal_handler, _state = BasicState.RUNNING</text><line style="stroke:#A80036;stroke-width:1.0;" x1="513.5" x2="555.5" y1="816.6406" y2="816.6406"/><line style="stroke:#A80036;stroke-width:1.0;" x1="555.5" x2="555.5" y1="816.6406" y2="829.6406"/><line style="stroke:#A80036;stroke-width:1.0;" x1="514.5" x2="555.5" y1="829.6406" y2="829.6406"/><polygon fill="#A80036" points="524.5,825.6406,514.5,829.6406,524.5,833.6406" style="stroke:#A80036;stroke-width:1.0;"/><text fill="#000000" font-family="sans-serif" font-size="13" lengthAdjust="spacing" textLength="246" x="520.5" y="811.7842">state changes to StartingAgentConductors</text><polygon fill="#A80036" points="1262.5,855.9922,1272.5,859.9922,1262.5,863.9922" style="stroke:#A80036;stroke-width:1.0;"/><line style="stroke:#A80036;stroke-width:1.0;" x1="513.5" x2="1268.5" y1="859.9922" y2="859.9922"/><text fill="#000000" font-family="sans-serif" font-size="13" lengthAdjust="spacing" textLength="128" x="830" y="855.1357">_run_agent_conductor</text><line style="stroke:#A80036;stroke-width:1.0;" x1="513.5" x2="555.5" y1="890.3438" y2="890.3438"/><line style="stroke:#A80036;stroke-width:1.0;" x1="555.5" x2="555.5" y1="890.3438" y2="903.3438"/><line style="stroke:#A80036;stroke-width:1.0;" x1="514.5" x2="555.5" y1="903.3438" y2="903.3438"/><polygon fill="#A80036" points="524.5,899.3438,514.5,903.3438,524.5,907.3438" style="stroke:#A80036;stroke-width:1.0;"/><text fill="#000000" font-family="sans-serif" font-size="13" lengthAdjust="spacing" textLength="169" x="520.5" y="885.4873">state changes to StartingRun</text><polygon fill="#A80036" points="761.5,929.6953,771.5,933.6953,761.5,937.6953" style="stroke:#A80036;stroke-width:1.0;"/><line style="stroke:#A80036;stroke-width:1.0;" x1="513.5" x2="767.5" y1="933.6953" y2="933.6953"/><text fill="#000000" font-family="sans-serif" font-size="13" lengthAdjust="spacing" textLength="137" x="575" y="928.8389">SimulationStartRequest</text><polygon fill="#A80036" points="524.5,960.0469,514.5,964.0469,524.5,968.0469" style="stroke:#A80036;stroke-width:1.0;"/><line style="stroke:#A80036;stroke-width:1.0;stroke-dasharray:2.0,2.0;" x1="518.5" x2="772.5" y1="964.0469" y2="964.0469"/><text fill="#000000" font-family="sans-serif" font-size="13" lengthAdjust="spacing" textLength="147" x="570" y="959.1904">SimulationStartResponse</text><line style="stroke:#A80036;stroke-width:1.0;" x1="773.5" x2="815.5" y1="994.3984" y2="994.3984"/><line style="stroke:#A80036;stroke-width:1.0;" x1="815.5" x2="815.5" y1="994.3984" y2="1007.3984"/><line style="stroke:#A80036;stroke-width:1.0;" x1="774.5" x2="815.5" y1="1007.3984" y2="1007.3984"/><polygon fill="#A80036" points="784.5,1003.3984,774.5,1007.3984,784.5,1011.3984" style="stroke:#A80036;stroke-width:1.0;"/><text fill="#000000" font-family="sans-serif" font-size="13" lengthAdjust="spacing" textLength="90" x="780.5" y="989.542">_init_simulation</text><polygon fill="#A80036" points="948.5,1033.75,958.5,1037.75,948.5,1041.75" style="stroke:#A80036;stroke-width:1.0;"/><line style="stroke:#A80036;stroke-width:1.0;" x1="773.5" x2="954.5" y1="1037.75" y2="1037.75"/><text fill="#000000" font-family="sans-serif" font-size="13" lengthAdjust="spacing" textLength="153" x="790.5" y="1032.8936">EnvironmentSetupRequest</text><polygon fill="#A80036" points="1377.5,1064.1016,1387.5,1068.1016,1377.5,1072.1016" style="stroke:#A80036;stroke-width:1.0;"/><line style="stroke:#A80036;stroke-width:1.0;" x1="960.5" x2="1383.5" y1="1068.1016" y2="1068.1016"/><text fill="#000000" font-family="sans-serif" font-size="13" lengthAdjust="spacing" textLength="100" x="1125" y="1063.2451">_init_environment</text><polygon fill="#A80036" points="784.5,1094.4531,774.5,1098.4531,784.5,1102.4531" style="stroke:#A80036;stroke-width:1.0;"/><line style="stroke:#A80036;stroke-width:1.0;stroke-dasharray:2.0,2.0;" x1="778.5" x2="959.5" y1="1098.4531" y2="1098.4531"/><text fill="#000000" font-family="sans-serif" font-size="13" lengthAdjust="spacing" textLength="163" x="785.5" y="1093.5967">EnvironmentSetupResponse</text><polygon fill="#A80036" points="1377.5,1124.8047,1387.5,1128.8047,1377.5,1132.8047" style="stroke:#A80036;stroke-width:1.0;"/><line style="stroke:#A80036;stroke-width:1.0;" x1="773.5" x2="1383.5" y1="1128.8047" y2="1128.8047"/><text fill="#000000" font-family="sans-serif" font-size="13" lengthAdjust="spacing" textLength="147" x="1008" y="1123.9482">EnvironmentStartRequest</text><polygon fill="#A80036" points="784.5,1155.1563,774.5,1159.1563,784.5,1163.1563" style="stroke:#A80036;stroke-width:1.0;"/><line style="stroke:#A80036;stroke-width:1.0;stroke-dasharray:2.0,2.0;" x1="778.5" x2="1388.5" y1="1159.1563" y2="1159.1563"/><text fill="#000000" font-family="sans-serif" font-size="13" lengthAdjust="spacing" textLength="157" x="1003" y="1154.2998">EnvironmentStartResponse</text><polygon fill="#A80036" points="1262.5,1185.5078,1272.5,1189.5078,1262.5,1193.5078" style="stroke:#A80036;stroke-width:1.0;"/><line style="stroke:#A80036;stroke-width:1.0;" x1="773.5" x2="1268.5" y1="1189.5078" y2="1189.5078"/><text fill="#000000" font-family="sans-serif" font-size="13" lengthAdjust="spacing" textLength="116" x="966" y="1184.6514">AgentSetupRequest</text><polygon fill="#A80036" points="1457.5,1215.8594,1467.5,1219.8594,1457.5,1223.8594" style="stroke:#A80036;stroke-width:1.0;"/><line style="stroke:#A80036;stroke-width:1.0;" x1="1274.5" x2="1463.5" y1="1219.8594" y2="1219.8594"/><text fill="#000000" font-family="sans-serif" font-size="13" lengthAdjust="spacing" textLength="59" x="1342.5" y="1215.0029">_init_brain</text><polygon fill="#A80036" points="1638.5,1246.2109,1648.5,1250.2109,1638.5,1254.2109" style="stroke:#A80036;stroke-width:1.0;"/><line style="stroke:#A80036;stroke-width:1.0;" x1="1274.5" x2="1644.5" y1="1250.2109" y2="1250.2109"/><text fill="#000000" font-family="sans-serif" font-size="13" lengthAdjust="spacing" textLength="73" x="1426" y="1245.3545">_init_muscle</text><polygon fill="#A80036" points="784.5,1276.5625,774.5,1280.5625,784.5,1284.5625" style="stroke:#A80036;stroke-width:1.0;"/><line style="stroke:#A80036;stroke-width:1.0;stroke-dasharray:2.0,2.0;" x1="778.5" x2="1273.5" y1="1280.5625" y2="1280.5625"/><text fill="#000000" font-family="sans-serif" font-size="13" lengthAdjust="spacing" textLength="126" x="961" y="1275.7061">AgentSetupResponse</text><line style="stroke:#A80036;stroke-width:1.0;" x1="513.5" x2="555.5" y1="1310.9141" y2="1310.9141"/><line style="stroke:#A80036;stroke-width:1.0;" x1="555.5" x2="555.5" y1="1310.9141" y2="1323.9141"/><line style="stroke:#A80036;stroke-width:1.0;" x1="514.5" x2="555.5" y1="1323.9141" y2="1323.9141"/><polygon fill="#A80036" points="524.5,1319.9141,514.5,1323.9141,524.5,1327.9141" style="stroke:#A80036;stroke-width:1.0;"/><text fill="#000000" font-family="sans-serif" font-size="13" lengthAdjust="spacing" textLength="172" x="520.5" y="1306.0576">state changes to Transceiving</text><rect fill="#EEEEEE" height="3" style="stroke:#EEEEEE;stroke-width:1.0;" width="1699.5" x="0" y="1353.0898"/><line style="stroke:#000000;stroke-width:1.0;" x1="0" x2="1699.5" y1="1353.0898" y2="1353.0898"/><line style="stroke:#000000;stroke-width:1.0;" x1="0" x2="1699.5" y1="1356.0898" y2="1356.0898"/><rect fill="#EEEEEE" height="24.3516" style="stroke:#000000;stroke-width:2.0;" width="85" x="807.25" y="1341.9141"/><text fill="#000000" font-family="sans-serif" font-size="13" font-weight="bold" lengthAdjust="spacing" textLength="67" x="813.25" y="1359.4092">Main Loop</text><path d="M714,1383.2656 L787,1383.2656 L787,1391.2656 L777,1401.2656 L714,1401.2656 L714,1383.2656 " fill="#EEEEEE" style="stroke:#000000;stroke-width:1.0;"/><rect fill="none" height="200.4609" style="stroke:#000000;stroke-width:2.0;" width="975.5" x="714" y="1383.2656"/><text fill="#000000" font-family="sans-serif" font-size="13" font-weight="bold" lengthAdjust="spacing" textLength="28" x="729" y="1397.7607">loop</text><text fill="#000000" font-family="sans-serif" font-size="11" font-weight="bold" lengthAdjust="spacing" textLength="272" x="802" y="1396.6846">[until ExperimentRunShutdownRequest received]</text><polygon fill="#A80036" points="1377.5,1419.9688,1387.5,1423.9688,1377.5,1427.9688" style="stroke:#A80036;stroke-width:1.0;"/><line style="stroke:#A80036;stroke-width:1.0;" x1="773.5" x2="1383.5" y1="1423.9688" y2="1423.9688"/><text fill="#000000" font-family="sans-serif" font-size="13" lengthAdjust="spacing" textLength="160" x="1001.5" y="1419.1123">EnvironmentUpdateRequest</text><polygon fill="#A80036" points="784.5,1450.3203,774.5,1454.3203,784.5,1458.3203" style="stroke:#A80036;stroke-width:1.0;"/><line style="stroke:#A80036;stroke-width:1.0;stroke-dasharray:2.0,2.0;" x1="778.5" x2="1388.5" y1="1454.3203" y2="1454.3203"/><text fill="#000000" font-family="sans-serif" font-size="13" lengthAdjust="spacing" textLength="163" x="1000" y="1449.4639">EnvironmentUpdateRespnse</text><polygon fill="#A80036" points="1638.5,1480.6719,1648.5,1484.6719,1638.5,1488.6719" style="stroke:#A80036;stroke-width:1.0;"/><line style="stroke:#A80036;stroke-width:1.0;" x1="773.5" x2="1644.5" y1="1484.6719" y2="1484.6719"/><text fill="#000000" font-family="sans-serif" font-size="13" lengthAdjust="spacing" textLength="123" x="1150.5" y="1479.8154">AgentUpdateRequest</text><polygon fill="#A80036" points="1480.5,1511.0234,1470.5,1515.0234,1480.5,1519.0234" style="stroke:#A80036;stroke-width:1.0;"/><line style="stroke:#A80036;stroke-width:1.0;" x1="1474.5" x2="1649.5" y1="1515.0234" y2="1515.0234"/><text fill="#000000" font-family="sans-serif" font-size="13" lengthAdjust="spacing" textLength="131" x="1494.5" y="1510.167">MuscleUpdateRequest</text><polygon fill="#A80036" points="1638.5,1541.375,1648.5,1545.375,1638.5,1549.375" style="stroke:#A80036;stroke-width:1.0;"/><line style="stroke:#A80036;stroke-width:1.0;stroke-dasharray:2.0,2.0;" x1="1469.5" x2="1644.5" y1="1545.375" y2="1545.375"/><text fill="#000000" font-family="sans-serif" font-size="13" lengthAdjust="spacing" textLength="141" x="1489.5" y="1540.5186">MuscleUpdateResponse</text><polygon fill="#A80036" points="784.5,1571.7266,774.5,1575.7266,784.5,1579.7266" style="stroke:#A80036;stroke-width:1.0;"/><line style="stroke:#A80036;stroke-width:1.0;stroke-dasharray:2.0,2.0;" x1="778.5" x2="1649.5" y1="1575.7266" y2="1575.7266"/><text fill="#000000" font-family="sans-serif" font-size="13" lengthAdjust="spacing" textLength="133" x="1145.5" y="1570.8701">AgentUpdateResponse</text><rect fill="#EEEEEE" height="3" style="stroke:#EEEEEE;stroke-width:1.0;" width="1699.5" x="0" y="1611.9023"/><line style="stroke:#000000;stroke-width:1.0;" x1="0" x2="1699.5" y1="1611.9023" y2="1611.9023"/><line style="stroke:#000000;stroke-width:1.0;" x1="0" x2="1699.5" y1="1614.9023" y2="1614.9023"/><rect fill="#EEEEEE" height="24.3516" style="stroke:#000000;stroke-width:2.0;" width="82" x="808.75" y="1600.7266"/><text fill="#000000" font-family="sans-serif" font-size="13" font-weight="bold" lengthAdjust="spacing" textLength="64" x="814.75" y="1618.2217">Shutdown</text><polygon fill="#A80036" points="501.5,1653.4297,511.5,1657.4297,501.5,1661.4297" style="stroke:#A80036;stroke-width:1.0;"/><line style="stroke:#A80036;stroke-width:1.0;" x1="237.5" x2="507.5" y1="1657.4297" y2="1657.4297"/><text fill="#000000" font-family="sans-serif" font-size="13" lengthAdjust="spacing" textLength="194" x="278.5" y="1652.5732">ExperimentRunShutdownRequest</text><line style="stroke:#A80036;stroke-width:1.0;" x1="513.5" x2="555.5" y1="1687.7813" y2="1687.7813"/><line style="stroke:#A80036;stroke-width:1.0;" x1="555.5" x2="555.5" y1="1687.7813" y2="1700.7813"/><line style="stroke:#A80036;stroke-width:1.0;" x1="514.5" x2="555.5" y1="1700.7813" y2="1700.7813"/><polygon fill="#A80036" points="524.5,1696.7813,514.5,1700.7813,524.5,1704.7813" style="stroke:#A80036;stroke-width:1.0;"/><text fill="#000000" font-family="sans-serif" font-size="13" lengthAdjust="spacing" textLength="213" x="520.5" y="1682.9248">state changes to StoppingSimulation</text><polygon fill="#A80036" points="761.5,1727.1328,771.5,1731.1328,761.5,1735.1328" style="stroke:#A80036;stroke-width:1.0;"/><line style="stroke:#A80036;stroke-width:1.0;" x1="513.5" x2="767.5" y1="1731.1328" y2="1731.1328"/><text fill="#000000" font-family="sans-serif" font-size="13" lengthAdjust="spacing" textLength="136" x="575.5" y="1726.2764">SimulationStopRequest</text><line style="stroke:#A80036;stroke-width:1.0;" x1="773.5" x2="815.5" y1="1761.4844" y2="1761.4844"/><line style="stroke:#A80036;stroke-width:1.0;" x1="815.5" x2="815.5" y1="1761.4844" y2="1774.4844"/><line style="stroke:#A80036;stroke-width:1.0;" x1="774.5" x2="815.5" y1="1774.4844" y2="1774.4844"/><polygon fill="#A80036" points="784.5,1770.4844,774.5,1774.4844,784.5,1778.4844" style="stroke:#A80036;stroke-width:1.0;"/><text fill="#000000" font-family="sans-serif" font-size="13" lengthAdjust="spacing" textLength="98" x="780.5" y="1756.6279">_stop_simulation</text><polygon fill="#A80036" points="1638.5,1800.8359,1648.5,1804.8359,1638.5,1808.8359" style="stroke:#A80036;stroke-width:1.0;"/><line style="stroke:#A80036;stroke-width:1.0;" x1="773.5" x2="1644.5" y1="1804.8359" y2="1804.8359"/><text fill="#000000" font-family="sans-serif" font-size="13" lengthAdjust="spacing" textLength="139" x="1142.5" y="1799.9795">AgentShutdownRequest</text><polygon fill="#A80036" points="1480.5,1831.1875,1470.5,1835.1875,1480.5,1839.1875" style="stroke:#A80036;stroke-width:1.0;"/><line style="stroke:#A80036;stroke-width:1.0;" x1="1474.5" x2="1649.5" y1="1835.1875" y2="1835.1875"/><text fill="#000000" font-family="sans-serif" font-size="13" lengthAdjust="spacing" textLength="147" x="1486.5" y="1830.3311">MuscleShutdownRequest</text><polygon fill="#A80036" points="1638.5,1861.5391,1648.5,1865.5391,1638.5,1869.5391" style="stroke:#A80036;stroke-width:1.0;"/><line style="stroke:#A80036;stroke-width:1.0;stroke-dasharray:2.0,2.0;" x1="1469.5" x2="1644.5" y1="1865.5391" y2="1865.5391"/><text fill="#000000" font-family="sans-serif" font-size="13" lengthAdjust="spacing" textLength="157" x="1481.5" y="1860.6826">MuscleShutdownResponse</text><polygon fill="#A80036" points="784.5,1891.8906,774.5,1895.8906,784.5,1899.8906" style="stroke:#A80036;stroke-width:1.0;"/><line style="stroke:#A80036;stroke-width:1.0;stroke-dasharray:2.0,2.0;" x1="778.5" x2="1649.5" y1="1895.8906" y2="1895.8906"/><text fill="#000000" font-family="sans-serif" font-size="13" lengthAdjust="spacing" textLength="149" x="1137.5" y="1891.0342">AgentShutdownResponse</text><polygon fill="#A80036" points="1377.5,1922.2422,1387.5,1926.2422,1377.5,1930.2422" style="stroke:#A80036;stroke-width:1.0;"/><line style="stroke:#A80036;stroke-width:1.0;" x1="773.5" x2="1383.5" y1="1926.2422" y2="1926.2422"/><text fill="#000000" font-family="sans-serif" font-size="13" lengthAdjust="spacing" textLength="176" x="993.5" y="1921.3857">EnvironmentShutdownRequest</text><polygon fill="#A80036" points="784.5,1952.5938,774.5,1956.5938,784.5,1960.5938" style="stroke:#A80036;stroke-width:1.0;"/><line style="stroke:#A80036;stroke-width:1.0;stroke-dasharray:2.0,2.0;" x1="778.5" x2="1388.5" y1="1956.5938" y2="1956.5938"/><text fill="#000000" font-family="sans-serif" font-size="13" lengthAdjust="spacing" textLength="186" x="988.5" y="1951.7373">EnvironmentShutdownResponse</text><polygon fill="#A80036" points="1262.5,1982.9453,1272.5,1986.9453,1262.5,1990.9453" style="stroke:#A80036;stroke-width:1.0;"/><line style="stroke:#A80036;stroke-width:1.0;" x1="773.5" x2="1268.5" y1="1986.9453" y2="1986.9453"/><text fill="#000000" font-family="sans-serif" font-size="13" lengthAdjust="spacing" textLength="105" x="971.5" y="1982.0889">ShutdownRequest</text><polygon fill="#A80036" points="784.5,2013.2969,774.5,2017.2969,784.5,2021.2969" style="stroke:#A80036;stroke-width:1.0;"/><line style="stroke:#A80036;stroke-width:1.0;stroke-dasharray:2.0,2.0;" x1="778.5" x2="1273.5" y1="2017.2969" y2="2017.2969"/><text fill="#000000" font-family="sans-serif" font-size="13" lengthAdjust="spacing" textLength="115" x="966.5" y="2012.4404">ShutdownResponse</text><polygon fill="#A80036" points="948.5,2043.6484,958.5,2047.6484,948.5,2051.6484" style="stroke:#A80036;stroke-width:1.0;"/><line style="stroke:#A80036;stroke-width:1.0;" x1="773.5" x2="954.5" y1="2047.6484" y2="2047.6484"/><text fill="#000000" font-family="sans-serif" font-size="13" lengthAdjust="spacing" textLength="105" x="814.5" y="2042.792">ShutdownRequest</text><polygon fill="#A80036" points="784.5,2074,774.5,2078,784.5,2082" style="stroke:#A80036;stroke-width:1.0;"/><line style="stroke:#A80036;stroke-width:1.0;stroke-dasharray:2.0,2.0;" x1="778.5" x2="959.5" y1="2078" y2="2078"/><text fill="#000000" font-family="sans-serif" font-size="13" lengthAdjust="spacing" textLength="115" x="809.5" y="2073.1436">ShutdownResponse</text><polygon fill="#A80036" points="524.5,2104.3516,514.5,2108.3516,524.5,2112.3516" style="stroke:#A80036;stroke-width:1.0;"/><line style="stroke:#A80036;stroke-width:1.0;stroke-dasharray:2.0,2.0;" x1="518.5" x2="772.5" y1="2108.3516" y2="2108.3516"/><text fill="#000000" font-family="sans-serif" font-size="13" lengthAdjust="spacing" textLength="146" x="570.5" y="2103.4951">SimulationStopResponse</text><polygon fill="#A80036" points="248.5,2134.7031,238.5,2138.7031,248.5,2142.7031" style="stroke:#A80036;stroke-width:1.0;"/><line style="stroke:#A80036;stroke-width:1.0;stroke-dasharray:2.0,2.0;" x1="242.5" x2="512.5" y1="2138.7031" y2="2138.7031"/><text fill="#000000" font-family="sans-serif" font-size="13" lengthAdjust="spacing" textLength="204" x="273.5" y="2133.8467">ExperimentRunShutdownResponse</text><line style="stroke:#A80036;stroke-width:1.0;" x1="513.5" x2="555.5" y1="2169.0547" y2="2169.0547"/><line style="stroke:#A80036;stroke-width:1.0;" x1="555.5" x2="555.5" y1="2169.0547" y2="2182.0547"/><line style="stroke:#A80036;stroke-width:1.0;" x1="514.5" x2="555.5" y1="2182.0547" y2="2182.0547"/><polygon fill="#A80036" points="524.5,2178.0547,514.5,2182.0547,524.5,2186.0547" style="stroke:#A80036;stroke-width:1.0;"/><text fill="#000000" font-family="sans-serif" font-size="13" lengthAdjust="spacing" textLength="223" x="520.5" y="2164.1982">state changes to StoppingTransceiving</text><line style="stroke:#A80036;stroke-width:1.0;" x1="513.5" x2="555.5" y1="2212.4063" y2="2212.4063"/><line style="stroke:#A80036;stroke-width:1.0;" x1="555.5" x2="555.5" y1="2212.4063" y2="2225.4063"/><line style="stroke:#A80036;stroke-width:1.0;" x1="514.5" x2="555.5" y1="2225.4063" y2="2225.4063"/><polygon fill="#A80036" points="524.5,2221.4063,514.5,2225.4063,524.5,2229.4063" style="stroke:#A80036;stroke-width:1.0;"/><text fill="#000000" font-family="sans-serif" font-size="13" lengthAdjust="spacing" textLength="175" x="520.5" y="2207.5498">state changes to StoppingRun</text><line style="stroke:#A80036;stroke-width:1.0;" x1="513.5" x2="555.5" y1="2255.7578" y2="2255.7578"/><line style="stroke:#A80036;stroke-width:1.0;" x1="555.5" x2="555.5" y1="2255.7578" y2="2268.7578"/><line style="stroke:#A80036;stroke-width:1.0;" x1="514.5" x2="555.5" y1="2268.7578" y2="2268.7578"/><polygon fill="#A80036" points="524.5,2264.7578,514.5,2268.7578,524.5,2272.7578" style="stroke:#A80036;stroke-width:1.0;"/><text fill="#000000" font-family="sans-serif" font-size="13" lengthAdjust="spacing" textLength="156" x="520.5" y="2250.9014">state changes to Finalizing</text><line style="stroke:#A80036;stroke-width:1.0;" x1="513.5" x2="555.5" y1="2299.1094" y2="2299.1094"/><line style="stroke:#A80036;stroke-width:1.0;" x1="555.5" x2="555.5" y1="2299.1094" y2="2312.1094"/><line style="stroke:#A80036;stroke-width:1.0;" x1="514.5" x2="555.5" y1="2312.1094" y2="2312.1094"/><polygon fill="#A80036" points="524.5,2308.1094,514.5,2312.1094,524.5,2316.1094" style="stroke:#A80036;stroke-width:1.0;"/><text fill="#000000" font-family="sans-serif" font-size="13" lengthAdjust="spacing" textLength="131" x="520.5" y="2294.2529">state changes to Done</text><!--MD5=[599092647e5ff2d9666d5b891ce9374d]
@startuml Sequenz
skinparam style strictuml
skinparam SequenceMessageAlignment center

== Initialization ==
CLI -> Executor: palaestrai experiment-start [path]
Executor -> Executor: execute
Executor -> Executor: _start_all_scheduled_experiments
Executor -> Executor: _deploy_experiment_run
Executor -> Executor: _launch_run_governor
Executor -> RunGovernor: launches RunGovernor in Pristine state
RunGovernor -> RunGovernor: state changes to Initializing
RunGovernor -> RunGovernor: state changes to Transceiving
Executor -> Executor: _start_experiment_run
Executor -> RunGovernor: _client.send(rg_id,ExperimentStartRequest)
RunGovernor -> RunGovernor: state changes to StartingSetup
RunGovernor - -> Executor: ExperimentStartResponse
RunGovernor -> RunGovernor: state changes to StartingSimControllers
RunGovernor -> SimController: _run_simulation_controller
SimController -> SimController: _setup
RunGovernor -> RunGovernor: state changes to StartingEnvConductors
RunGovernor -> EnvConductor: _run_environment_conductor
EnvConductor -> EnvConductor: _init_signal_handler, _state = BasicState.RUNNING
RunGovernor -> RunGovernor: state changes to StartingAgentConductors
RunGovernor -> AgentConductor: _run_agent_conductor
RunGovernor -> RunGovernor: state changes to StartingRun
RunGovernor -> SimController: SimulationStartRequest
SimController - -> RunGovernor: SimulationStartResponse
SimController -> SimController: _init_simulation
SimController -> EnvConductor: EnvironmentSetupRequest
EnvConductor -> Environment: _init_environment
EnvConductor - -> SimController: EnvironmentSetupResponse
SimController -> Environment: EnvironmentStartRequest
Environment - -> SimController: EnvironmentStartResponse
SimController -> AgentConductor: AgentSetupRequest
AgentConductor -> Brain: _init_brain
AgentConductor -> Muscle: _init_muscle
AgentConductor - -> SimController: AgentSetupResponse
RunGovernor -> RunGovernor: state changes to Transceiving

== Main Loop ==
loop until ExperimentRunShutdownRequest received
    SimController -> Environment: EnvironmentUpdateRequest
    Environment - -> SimController: EnvironmentUpdateRespnse
    SimController -> Muscle: AgentUpdateRequest
    Muscle -> Brain: MuscleUpdateRequest
    Brain - -> Muscle: MuscleUpdateResponse
    Muscle - -> SimController: AgentUpdateResponse
end

== Shutdown ==
Executor -> RunGovernor: ExperimentRunShutdownRequest
RunGovernor -> RunGovernor: state changes to StoppingSimulation
RunGovernor -> SimController: SimulationStopRequest
SimController -> SimController: _stop_simulation
SimController -> Muscle: AgentShutdownRequest
Muscle -> Brain: MuscleShutdownRequest
Brain - -> Muscle: MuscleShutdownResponse
Muscle - -> SimController: AgentShutdownResponse
SimController -> Environment: EnvironmentShutdownRequest
Environment - -> SimController: EnvironmentShutdownResponse
SimController -> AgentConductor: ShutdownRequest
AgentConductor - -> SimController: ShutdownResponse
SimController -> EnvConductor: ShutdownRequest
EnvConductor - -> SimController: ShutdownResponse
SimController - -> RunGovernor: SimulationStopResponse
RunGovernor - -> Executor: ExperimentRunShutdownResponse
RunGovernor -> RunGovernor: state changes to StoppingTransceiving
RunGovernor -> RunGovernor: state changes to StoppingRun
RunGovernor -> RunGovernor: state changes to Finalizing
RunGovernor -> RunGovernor: state changes to Done
@enduml

PlantUML version 1.2022.0(Tue Jan 11 17:16:42 CET 2022)
(GPL source distribution)
Java Runtime: OpenJDK Runtime Environment
JVM: OpenJDK 64-Bit Server VM
Default Encoding: Cp1252
Language: de
Country: DE
--></g></svg>